Monster movies
…
Analyze the genres

In this part, we will analyze the genres of monster movies. Each movie can have multiple genres separated by commas.

mm_genre <-
    mm |> 
    separate_rows(genres, sep = ",")

mm_genre |> 
    count(genres, sort = TRUE)

# A tibble: 23 × 2
   genres          n
   <chr>       <int>
 1 Horror        211
 2 Comedy        163
 3 Documentary   127
 4 Drama         103
 5 Adventure     100
 6 Sci-Fi         98
 7 Action         88
 8 Animation      78
 9 Fantasy        64
10 Family         57
# ℹ 13 more rows
…
Correlate the number of votes and rating

Can we see any correlation between the number of votes and the average rating of monster movies?

mm |> 
    arrange(-num_votes)

# A tibble: 630 × 11
   tconst   title_type primary_title original_title  year runtime_minutes genres
   <chr>    <chr>      <chr>         <chr>          <dbl>           <dbl> <chr> 
 1 tt01987… movie      Monsters, In… Monsters, Inc.  2001              92 Adven…
 2 tt14534… movie      Monsters Uni… Monsters Univ…  2013             104 Adven…
 3 tt37417… movie      Godzilla: Ki… Godzilla: Kin…  2019             132 Actio…
 4 tt08927… movie      Monsters vs.… Monsters vs A…  2009              94 Actio…
 5 tt03408… movie      Monster       Monster         2003             109 Biogr…
 6 tt22220… movie      Love and Mon… Love and Mons…  2020             109 Actio…
 7 tt03858… movie      Monster House Monster House   2006              91 Anima…
 8 tt18545… movie      Percy Jackso… Percy Jackson…  2013             106 Adven…
 9 tt22413… movie      Money Monster Money Monster   2016              98 Actio…
10 tt14708… movie      Monsters      Monsters        2010              94 Adven…
# ℹ 620 more rows
# ℹ 4 more variables: simple_title <chr>, average_rating <dbl>,
#   num_votes <dbl>, decade <dbl>
…
